C:\Users\Папа\Pictures\task5client\src\main\java\ru\osgiproject\task5client\Activator.java
C:\Users\Папа\Pictures\task5client\src\main\java\ru\osgiproject\task5client\NewsStat.java
C:\Users\Папа\Pictures\task5client\src\main\java\ru\osgiproject\task5client\StatInterface.java
C:\Users\Папа\Pictures\task5client\src\main\java\ru\osgiproject\task5client\TitleListInterface.java
